[
    {
        "name": "Spider-Man",
        "cast": "Tobey Maguire, Kirsten Dunst",
        "imageName": "MovieResources/movie1.jpg",
        "thumbnailName": "MovieResources/movie1.jpg",
        "type": "action"
    },
    {
        "name": "Iron Man",
        "cast": "Robert Downey Jr., Jon Favreau, Gwyneth Paltrow, Stan Lee, MORE",
        "imageName": "MovieResources/movie2.jpg",
        "thumbnailName": "MovieResources/movie2.jpg",
        "type": "action"
    },
    {
        "name": "Batman",
        "cast": "Christian Bale, Gary Oldman",
        "imageName": "MovieResources/movie3.jpg",
        "thumbnailName": "MovieResources/movie3.jpg",
        "type": "action"
    }
]
